examples/event_recorder/test.vcd
$date
    Jun 03, 2018  09:49:22
$end
$version
    TOOL: EvR v0.1
$end
$timescale
   10 ns
$end
$scope module inputs $end
$var wire 1 ! input_0 $end
$var wire 1 " input_1 $end
$var wire 1 # input_2 $end
$var wire 1 $ input_3 $end
$var wire 1 % input_4 $end
$var wire 1 & input_5 $end
$var wire 1 ' input_6 $end
$var wire 1 ( input_7 $end
$var wire 1 ) input_8 $end
$var wire 1 * input_9 $end
$var wire 1 + input_10 $end
$var wire 1 , input_11 $end
$var wire 1 - input_12 $end
$var wire 1 . input_13 $end
$var wire 1 / input_14 $end
$var wire 1 0 input_15 $end
$upscope $end
$enddefinitions $end
$dumpvars
#72384731
0!
0"
0#
0$
1%
0&
0'
0(
0)
0*
0+
0,
0-
0.
0/
00
#72384743
0!
0"
0#
0$
0%
0&
0'
0(
0)
0*
0+
0,
0-
0.
0/
00
#72384756
0!
0"
0#
0$
0%
1&
0'
0(
0)
0*
0+
0,
0-
0.
0/
00
#72384767
0!
0"
0#
0$
0%
0&
0'
0(
0)
0*
0+
0,
0-
0.
0/
00
#72384780
0!
0"
0#
0$
0%
0&
1'
0(
0)
0*
0+
0,
0-
0.
0/
00
#72384792
0!
0"
0#
0$
0%
0&
0'
0(
0)
0*
0+
0,
0-
0.
0/
00
#72384805
0!
0"
0#
0$
0%
0&
0'
1(
0)
0*
0+
0,
0-
0.
0/
00
#72384817
0!
0"
0#
0$
0%
0&
0'
0(
0)
0*
0+
0,
0-
0.
0/
00
#272384183
0!
0"
0#
0$
1%
0&
0'
0(
0)
0*
0+
0,
0-
0.
0/
00
#272384196
0!
0"
0#
0$
0%
0&
0'
0(
0)
0*
0+
0,
0-
0.
0/
00
#272384208
0!
0"
0#
0$
0%
1&
0'
0(
0)
0*
0+
0,
0-
0.
0/
00
#272384219
0!
0"
0#
0$
0%
0&
0'
0(
0)
0*
0+
0,
0-
0.
0/
00
#272384232
0!
0"
0#
0$
0%
0&
1'
0(
0)
0*
0+
0,
0-
0.
0/
00
#272384244
0!
0"
0#
0$
0%
0&
0'
0(
0)
0*
0+
0,
0-
0.
0/
00
#272384257
0!
0"
0#
0$
0%
0&
0'
1(
0)
0*
0+
0,
0-
0.
0/
00
#272384269
0!
0"
0#
0$
0%
0&
0'
0(
0)
0*
0+
0,
0-
0.
0/
00
#472383637
0!
0"
0#
0$
1%
0&
0'
0(
0)
0*
0+
0,
0-
0.
0/
00
#472383649
0!
0"
0#
0$
0%
0&
0'
0(
0)
0*
0+
0,
0-
0.
0/
00
#472383662
0!
0"
0#
0$
0%
1&
0'
0(
0)
0*
0+
0,
0-
0.
0/
00
#472383673
0!
0"
0#
0$
0%
0&
0'
0(
0)
0*
0+
0,
0-
0.
0/
00
#472383686
0!
0"
0#
0$
0%
0&
1'
0(
0)
0*
0+
0,
0-
0.
0/
00
#472383698
0!
0"
0#
0$
0%
0&
0'
0(
0)
0*
0+
0,
0-
0.
0/
00
#472383711
0!
0"
0#
0$
0%
0&
0'
1(
0)
0*
0+
0,
0-
0.
0/
00
#472383723
0!
0"
0#
0$
0%
0&
0'
0(
0)
0*
0+
0,
0-
0.
0/
00
#672383090
0!
0"
0#
0$
1%
0&
0'
0(
0)
0*
0+
0,
0-
0.
0/
00
#672383103
0!
0"
0#
0$
0%
0&
0'
0(
0)
0*
0+
0,
0-
0.
0/
00
#672383115
0!
0"
0#
0$
0%
1&
0'
0(
0)
0*
0+
0,
0-
0.
0/
00
#672383128
0!
0"
0#
0$
0%
0&
0'
0(
0)
0*
0+
0,
0-
0.
0/
00
#672383140
0!
0"
0#
0$
0%
0&
1'
0(
0)
0*
0+
0,
0-
0.
0/
00
#672383152
0!
0"
0#
0$
0%
0&
0'
0(
0)
0*
0+
0,
0-
0.
0/
00
#672383164
0!
0"
0#
0$
0%
0&
0'
1(
0)
0*
0+
0,
0-
0.
0/
00
#672383176
0!
0"
0#
0$
0%
0&
0'
0(
0)
0*
0+
0,
0-
0.
0/
00
#872382549
0!
0"
0#
0$
1%
0&
0'
0(
0)
0*
0+
0,
0-
0.
0/
00
#872382561
0!
0"
0#
0$
0%
0&
0'
0(
0)
0*
0+
0,
0-
0.
0/
00
#872382573
0!
0"
0#
0$
0%
1&
0'
0(
0)
0*
0+
0,
0-
0.
0/
00
#872382585
0!
0"
0#
0$
0%
0&
0'
0(
0)
0*
0+
0,
0-
0.
0/
00
#872382597
0!
0"
0#
0$
0%
0&
1'
0(
0)
0*
0+
0,
0-
0.
0/
00
#872382610
0!
0"
0#
0$
0%
0&
0'
0(
0)
0*
0+
0,
0-
0.
0/
00
#872382622
0!
0"
0#
0$
0%
0&
0'
1(
0)
0*
0+
0,
0-
0.
0/
00
#872382635
0!
0"
0#
0$
0%
0&
0'
0(
0)
0*
0+
0,
0-
0.
0/
00
#1072382006
0!
0"
0#
0$
1%
0&
0'
0(
0)
0*
0+
0,
0-
0.
0/
00
#1072382018
0!
0"
0#
0$
0%
0&
0'
0(
0)
0*
0+
0,
0-
0.
0/
00
#1072382031
0!
0"
0#
0$
0%
1&
0'
0(
0)
0*
0+
0,
0-
0.
0/
00
#1072382042
0!
0"
0#
0$
0%
0&
0'
0(
0)
0*
0+
0,
0-
0.
0/
00
#1072382055
0!
0"
0#
0$
0%
0&
1'
0(
0)
0*
0+
0,
0-
0.
0/
00
#1072382067
0!
0"
0#
0$
0%
0&
0'
0(
0)
0*
0+
0,
0-
0.
0/
00
#1072382080
0!
0"
0#
0$
0%
0&
0'
1(
0)
0*
0+
0,
0-
0.
0/
00
#1072382092
0!
0"
0#
0$
0%
0&
0'
0(
0)
0*
0+
0,
0-
0.
0/
00
#1272381473
0!
0"
0#
0$
1%
0&
0'
0(
0)
0*
0+
0,
0-
0.
0/
00
#1272381485
0!
0"
0#
0$
0%
0&
0'
0(
0)
0*
0+
0,
0-
0.
0/
00
#1272381498
0!
0"
0#
0$
0%
1&
0'
0(
0)
0*
0+
0,
0-
0.
0/
00
#1272381509
0!
0"
0#
0$
0%
0&
0'
0(
0)
0*
0+
0,
0-
0.
0/
00
#1272381521
0!
0"
0#
0$
0%
0&
1'
0(
0)
0*
0+
0,
0-
0.
0/
00
#1272381534
0!
0"
0#
0$
0%
0&
0'
0(
0)
0*
0+
0,
0-
0.
0/
00
#1272381546
0!
0"
0#
0$
0%
0&
0'
1(
0)
0*
0+
0,
0-
0.
0/
00
#1272381559
0!
0"
0#
0$
0%
0&
0'
0(
0)
0*
0+
0,
0-
0.
0/
00
#1472380953
0!
0"
0#
0$
1%
0&
0'
0(
0)
0*
0+
0,
0-
0.
0/
00
#1472380965
0!
0"
0#
0$
0%
0&
0'
0(
0)
0*
0+
0,
0-
0.
0/
00
#1472380978
0!
0"
0#
0$
0%
1&
0'
0(
0)
0*
0+
0,
0-
0.
0/
00
#1472380989
0!
0"
0#
0$
0%
0&
0'
0(
0)
0*
0+
0,
0-
0.
0/
00
#1472381002
0!
0"
0#
0$
0%
0&
1'
0(
0)
0*
0+
0,
0-
0.
0/
00
#1472381014
0!
0"
0#
0$
0%
0&
0'
0(
0)
0*
0+
0,
0-
0.
0/
00
#1472381027
0!
0"
0#
0$
0%
0&
0'
1(
0)
0*
0+
0,
0-
0.
0/
00
#1472381039
0!
0"
0#
0$
0%
0&
0'
0(
0)
0*
0+
0,
0-
0.
0/
00
#1672380414
0!
0"
0#
0$
1%
0&
0'
0(
0)
0*
0+
0,
0-
0.
0/
00
#1672380427
0!
0"
0#
0$
0%
0&
0'
0(
0)
0*
0+
0,
0-
0.
0/
00
#1672380439
0!
0"
0#
0$
0%
1&
0'
0(
0)
0*
0+
0,
0-
0.
0/
00
#1672380450
0!
0"
0#
0$
0%
0&
0'
0(
0)
0*
0+
0,
0-
0.
0/
00
#1672380463
0!
0"
0#
0$
0%
0&
1'
0(
0)
0*
0+
0,
0-
0.
0/
00
#1672380475
0!
0"
0#
0$
0%
0&
0'
0(
0)
0*
0+
0,
0-
0.
0/
00
#1672380488
0!
0"
0#
0$
0%
0&
0'
1(
0)
0*
0+
0,
0-
0.
0/
00
#1672380500
0!
0"
0#
0$
0%
0&
0'
0(
0)
0*
0+
0,
0-
0.
0/
00
#1872379873
0!
0"
0#
0$
1%
0&
0'
0(
0)
0*
0+
0,
0-
0.
0/
00
#1872379885
0!
0"
0#
0$
0%
0&
0'
0(
0)
0*
0+
0,
0-
0.
0/
00
#1872379898
0!
0"
0#
0$
0%
1&
0'
0(
0)
0*
0+
0,
0-
0.
0/
00
#1872379909
0!
0"
0#
0$
0%
0&
0'
0(
0)
0*
0+
0,
0-
0.
0/
00
#1872379921
0!
0"
0#
0$
0%
0&
1'
0(
0)
0*
0+
0,
0-
0.
0/
00
#1872379934
0!
0"
0#
0$
0%
0&
0'
0(
0)
0*
0+
0,
0-
0.
0/
00
#1872379946
0!
0"
0#
0$
0%
0&
0'
1(
0)
0*
0+
0,
0-
0.
0/
00
#1872379959
0!
0"
0#
0$
0%
0&
0'
0(
0)
0*
0+
0,
0-
0.
0/
00
#2072379325
0!
0"
0#
0$
1%
0&
0'
0(
0)
0*
0+
0,
0-
0.
0/
00
#2072379337
0!
0"
0#
0$
0%
0&
0'
0(
0)
0*
0+
0,
0-
0.
0/
00
#2072379350
0!
0"
0#
0$
0%
1&
0'
0(
0)
0*
0+
0,
0-
0.
0/
00
#2072379361
0!
0"
0#
0$
0%
0&
0'
0(
0)
0*
0+
0,
0-
0.
0/
00
#2072379373
0!
0"
0#
0$
0%
0&
1'
0(
0)
0*
0+
0,
0-
0.
0/
00
#2072379386
0!
0"
0#
0$
0%
0&
0'
0(
0)
0*
0+
0,
0-
0.
0/
00
#2072379398
0!
0"
0#
0$
0%
0&
0'
1(
0)
0*
0+
0,
0-
0.
0/
00
#2072379411
0!
0"
0#
0$
0%
0&
0'
0(
0)
0*
0+
0,
0-
0.
0/
00
#2272378785
0!
0"
0#
0$
1%
0&
0'
0(
0)
0*
0+
0,
0-
0.
0/
00
#2272378798
0!
0"
0#
0$
0%
0&
0'
0(
0)
0*
0+
0,
0-
0.
0/
00
#2272378810
0!
0"
0#
0$
0%
1&
0'
0(
0)
0*
0+
0,
0-
0.
0/
00
#2272378822
0!
0"
0#
0$
0%
0&
0'
0(
0)
0*
0+
0,
0-
0.
0/
00
#2272378834
0!
0"
0#
0$
0%
0&
1'
0(
0)
0*
0+
0,
0-
0.
0/
00
#2272378847
0!
0"
0#
0$
0%
0&
0'
0(
0)
0*
0+
0,
0-
0.
0/
00
#2272378859
0!
0"
0#
0$
0%
0&
0'
1(
0)
0*
0+
0,
0-
0.
0/
00
#2272378872
0!
0"
0#
0$
0%
0&
0'
0(
0)
0*
0+
0,
0-
0.
0/
00
#2472378239
0!
0"
0#
0$
1%
0&
0'
0(
0)
0*
0+
0,
0-
0.
0/
00
#2472378252
0!
0"
0#
0$
0%
0&
0'
0(
0)
0*
0+
0,
0-
0.
0/
00
#2472378264
0!
0"
0#
0$
0%
1&
0'
0(
0)
0*
0+
0,
0-
0.
0/
00
#2472378277
0!
0"
0#
0$
0%
0&
0'
0(
0)
0*
0+
0,
0-
0.
0/
00
#2472378289
0!
0"
0#
0$
0%
0&
1'
0(
0)
0*
0+
0,
0-
0.
0/
00
#2472378300
0!
0"
0#
0$
0%
0&
0'
0(
0)
0*
0+
0,
0-
0.
0/
00
#2472378313
0!
0"
0#
0$
0%
0&
0'
1(
0)
0*
0+
0,
0-
0.
0/
00
#2472378325
0!
0"
0#
0$
0%
0&
0'
0(
0)
0*
0+
0,
0-
0.
0/
00
#2672377711
0!
0"
0#
0$
1%
0&
0'
0(
0)
0*
0+
0,
0-
0.
0/
00
#2672377724
0!
0"
0#
0$
0%
0&
0'
0(
0)
0*
0+
0,
0-
0.
0/
00
#2672377736
0!
0"
0#
0$
0%
1&
0'
0(
0)
0*
0+
0,
0-
0.
0/
00
#2672377748
0!
0"
0#
0$
0%
0&
0'
0(
0)
0*
0+
0,
0-
0.
0/
00
#2672377760
0!
0"
0#
0$
0%
0&
1'
0(
0)
0*
0+
0,
0-
0.
0/
00
#2672377773
0!
0"
0#
0$
0%
0&
0'
0(
0)
0*
0+
0,
0-
0.
0/
00
#2672377785
0!
0"
0#
0$
0%
0&
0'
1(
0)
0*
0+
0,
0-
0.
0/
00
#2672377798
0!
0"
0#
0$
0%
0&
0'
0(
0)
0*
0+
0,
0-
0.
0/
00
#2872377164
0!
0"
0#
0$
1%
0&
0'
0(
0)
0*
0+
0,
0-
0.
0/
00
#2872377177
0!
0"
0#
0$
0%
0&
0'
0(
0)
0*
0+
0,
0-
0.
0/
00
#2872377189
0!
0"
0#
0$
0%
1&
0'
0(
0)
0*
0+
0,
0-
0.
0/
00
#2872377200
0!
0"
0#
0$
0%
0&
0'
0(
0)
0*
0+
0,
0-
0.
0/
00
#2872377213
0!
0"
0#
0$
0%
0&
1'
0(
0)
0*
0+
0,
0-
0.
0/
00
#2872377225
0!
0"
0#
0$
0%
0&
0'
0(
0)
0*
0+
0,
0-
0.
0/
00
#2872377238
0!
0"
0#
0$
0%
0&
0'
1(
0)
0*
0+
0,
0-
0.
0/
00
#2872377250
0!
0"
0#
0$
0%
0&
0'
0(
0)
0*
0+
0,
0-
0.
0/
00
#3072376615
0!
0"
0#
0$
1%
0&
0'
0(
0)
0*
0+
0,
0-
0.
0/
00
#3072376627
0!
0"
0#
0$
0%
0&
0'
0(
0)
0*
0+
0,
0-
0.
0/
00
#3072376640
0!
0"
0#
0$
0%
1&
0'
0(
0)
0*
0+
0,
0-
0.
0/
00
#3072376651
0!
0"
0#
0$
0%
0&
0'
0(
0)
0*
0+
0,
0-
0.
0/
00
#3072376664
0!
0"
0#
0$
0%
0&
1'
0(
0)
0*
0+
0,
0-
0.
0/
00
#3072376676
0!
0"
0#
0$
0%
0&
0'
0(
0)
0*
0+
0,
0-
0.
0/
00
#3072376689
0!
0"
0#
0$
0%
0&
0'
1(
0)
0*
0+
0,
0-
0.
0/
00
#3072376701
0!
0"
0#
0$
0%
0&
0'
0(
0)
0*
0+
0,
0-
0.
0/
00
#3272376070
0!
0"
0#
0$
1%
0&
0'
0(
0)
0*
0+
0,
0-
0.
0/
00
#3272376082
0!
0"
0#
0$
0%
0&
0'
0(
0)
0*
0+
0,
0-
0.
0/
00
#3272376095
0!
0"
0#
0$
0%
1&
0'
0(
0)
0*
0+
0,
0-
0.
0/
00
#3272376106
0!
0"
0#
0$
0%
0&
0'
0(
0)
0*
0+
0,
0-
0.
0/
00
#3272376118
0!
0"
0#
0$
0%
0&
1'
0(
0)
0*
0+
0,
0-
0.
0/
00
#3272376131
0!
0"
0#
0$
0%
0&
0'
0(
0)
0*
0+
0,
0-
0.
0/
00
#3272376143
0!
0"
0#
0$
0%
0&
0'
1(
0)
0*
0+
0,
0-
0.
0/
00
#3272376156
0!
0"
0#
0$
0%
0&
0'
0(
0)
0*
0+
0,
0-
0.
0/
00
#3472375528
0!
0"
0#
0$
1%
0&
0'
0(
0)
0*
0+
0,
0-
0.
0/
00
#3472375541
0!
0"
0#
0$
0%
0&
0'
0(
0)
0*
0+
0,
0-
0.
0/
00
#3472375553
0!
0"
0#
0$
0%
1&
0'
0(
0)
0*
0+
0,
0-
0.
0/
00
#3472375565
0!
0"
0#
0$
0%
0&
0'
0(
0)
0*
0+
0,
0-
0.
0/
00
#3472375577
0!
0"
0#
0$
0%
0&
1'
0(
0)
0*
0+
0,
0-
0.
0/
00
#3472375590
0!
0"
0#
0$
0%
0&
0'
0(
0)
0*
0+
0,
0-
0.
0/
00
#3472375602
0!
0"
0#
0$
0%
0&
0'
1(
0)
0*
0+
0,
0-
0.
0/
00
#3472375614
0!
0"
0#
0$
0%
0&
0'
0(
0)
0*
0+
0,
0-
0.
0/
00
#3672374985
0!
0"
0#
0$
1%
0&
0'
0(
0)
0*
0+
0,
0-
0.
0/
00
#3672374997
0!
0"
0#
0$
0%
0&
0'
0(
0)
0*
0+
0,
0-
0.
0/
00
#3672375010
0!
0"
0#
0$
0%
1&
0'
0(
0)
0*
0+
0,
0-
0.
0/
00
#3672375021
0!
0"
0#
0$
0%
0&
0'
0(
0)
0*
0+
0,
0-
0.
0/
00
#3672375034
0!
0"
0#
0$
0%
0&
1'
0(
0)
0*
0+
0,
0-
0.
0/
00
#3672375046
0!
0"
0#
0$
0%
0&
0'
0(
0)
0*
0+
0,
0-
0.
0/
00
#3672375058
0!
0"
0#
0$
0%
0&
0'
1(
0)
0*
0+
0,
0-
0.
0/
00
#3672375071
0!
0"
0#
0$
0%
0&
0'
0(
0)
0*
0+
0,
0-
0.
0/
00
#3872374448
0!
0"
0#
0$
1%
0&
0'
0(
0)
0*
0+
0,
0-
0.
0/
00
#3872374460
0!
0"
0#
0$
0%
0&
0'
0(
0)
0*
0+
0,
0-
0.
0/
00
#3872374473
0!
0"
0#
0$
0%
1&
0'
0(
0)
0*
0+
0,
0-
0.
0/
00
#3872374484
0!
0"
0#
0$
0%
0&
0'
0(
0)
0*
0+
0,
0-
0.
0/
00
#3872374497
0!
0"
0#
0$
0%
0&
1'
0(
0)
0*
0+
0,
0-
0.
0/
00
#3872374509
0!
0"
0#
0$
0%
0&
0'
0(
0)
0*
0+
0,
0-
0.
0/
00
#3872374522
0!
0"
0#
0$
0%
0&
0'
1(
0)
0*
0+
0,
0-
0.
0/
00
#3872374534
0!
0"
0#
0$
0%
0&
0'
0(
0)
0*
0+
0,
0-
0.
0/
00
#4072373909
0!
0"
0#
0$
1%
0&
0'
0(
0)
0*
0+
0,
0-
0.
0/
00
#4072373921
0!
0"
0#
0$
0%
0&
0'
0(
0)
0*
0+
0,
0-
0.
0/
00
#4072373934
0!
0"
0#
0$
0%
1&
0'
0(
0)
0*
0+
0,
0-
0.
0/
00
#4072373945
0!
0"
0#
0$
0%
0&
0'
0(
0)
0*
0+
0,
0-
0.
0/
00
#4072373958
0!
0"
0#
0$
0%
0&
1'
0(
0)
0*
0+
0,
0-
0.
0/
00
#4072373970
0!
0"
0#
0$
0%
0&
0'
0(
0)
0*
0+
0,
0-
0.
0/
00
#4072373982
0!
0"
0#
0$
0%
0&
0'
1(
0)
0*
0+
0,
0-
0.
0/
00
#4072373995
0!
0"
0#
0$
0%
0&
0'
0(
0)
0*
0+
0,
0-
0.
0/
00
#4272373362
0!
0"
0#
0$
1%
0&
0'
0(
0)
0*
0+
0,
0-
0.
0/
00
#4272373374
0!
0"
0#
0$
0%
0&
0'
0(
0)
0*
0+
0,
0-
0.
0/
00
#4272373387
0!
0"
0#
0$
0%
1&
0'
0(
0)
0*
0+
0,
0-
0.
0/
00
#4272373399
0!
0"
0#
0$
0%
0&
0'
0(
0)
0*
0+
0,
0-
0.
0/
00
#4272373412
0!
0"
0#
0$
0%
0&
1'
0(
0)
0*
0+
0,
0-
0.
0/
00
#4272373423
0!
0"
0#
0$
0%
0&
0'
0(
0)
0*
0+
0,
0-
0.
0/
00
#4272373435
0!
0"
0#
0$
0%
0&
0'
1(
0)
0*
0+
0,
0-
0.
0/
00
#4272373448
0!
0"
0#
0$
0%
0&
0'
0(
0)
0*
0+
0,
0-
0.
0/
00
#4472372814
0!
0"
0#
0$
1%
0&
0'
0(
0)
0*
0+
0,
0-
0.
0/
00
#4472372826
0!
0"
0#
0$
0%
0&
0'
0(
0)
0*
0+
0,
0-
0.
0/
00
#4472372839
0!
0"
0#
0$
0%
1&
0'
0(
0)
0*
0+
0,
0-
0.
0/
00
#4472372850
0!
0"
0#
0$
0%
0&
0'
0(
0)
0*
0+
0,
0-
0.
0/
00
#4472372862
0!
0"
0#
0$
0%
0&
1'
0(
0)
0*
0+
0,
0-
0.
0/
00
#4472372875
0!
0"
0#
0$
0%
0&
0'
0(
0)
0*
0+
0,
0-
0.
0/
00
#4472372887
0!
0"
0#
0$
0%
0&
0'
1(
0)
0*
0+
0,
0-
0.
0/
00
#4472372900
0!
0"
0#
0$
0%
0&
0'
0(
0)
0*
0+
0,
0-
0.
0/
00
#4672372267
0!
0"
0#
0$
1%
0&
0'
0(
0)
0*
0+
0,
0-
0.
0/
00
#4672372279
0!
0"
0#
0$
0%
0&
0'
0(
0)
0*
0+
0,
0-
0.
0/
00
#4672372292
0!
0"
0#
0$
0%
1&
0'
0(
0)
0*
0+
0,
0-
0.
0/
00
#4672372303
0!
0"
0#
0$
0%
0&
0'
0(
0)
0*
0+
0,
0-
0.
0/
00
#4672372316
0!
0"
0#
0$
0%
0&
1'
0(
0)
0*
0+
0,
0-
0.
0/
00
#4672372328
0!
0"
0#
0$
0%
0&
0'
0(
0)
0*
0+
0,
0-
0.
0/
00
#4672372341
0!
0"
0#
0$
0%
0&
0'
1(
0)
0*
0+
0,
0-
0.
0/
00
#4672372353
0!
0"
0#
0$
0%
0&
0'
0(
0)
0*
0+
0,
0-
0.
0/
00
#4872371727
0!
0"
0#
0$
1%
0&
0'
0(
0)
0*
0+
0,
0-
0.
0/
00
#4872371739
0!
0"
0#
0$
0%
0&
0'
0(
0)
0*
0+
0,
0-
0.
0/
00
#4872371752
0!
0"
0#
0$
0%
1&
0'
0(
0)
0*
0+
0,
0-
0.
0/
00
#4872371763
0!
0"
0#
0$
0%
0&
0'
0(
0)
0*
0+
0,
0-
0.
0/
00
#4872371775
0!
0"
0#
0$
0%
0&
1'
0(
0)
0*
0+
0,
0-
0.
0/
00
#4872371788
0!
0"
0#
0$
0%
0&
0'
0(
0)
0*
0+
0,
0-
0.
0/
00
#4872371801
0!
0"
0#
0$
0%
0&
0'
1(
0)
0*
0+
0,
0-
0.
0/
00
#4872371813
0!
0"
0#
0$
0%
0&
0'
0(
0)
0*
0+
0,
0-
0.
0/
00
#5072371180
0!
0"
0#
0$
1%
0&
0'
0(
0)
0*
0+
0,
0-
0.
0/
00
#5072371192
0!
0"
0#
0$
0%
0&
0'
0(
0)
0*
0+
0,
0-
0.
0/
00
#5072371205
0!
0"
0#
0$
0%
1&
0'
0(
0)
0*
0+
0,
0-
0.
0/
00
#5072371216
0!
0"
0#
0$
0%
0&
0'
0(
0)
0*
0+
0,
0-
0.
0/
00
#5072371229
0!
0"
0#
0$
0%
0&
1'
0(
0)
0*
0+
0,
0-
0.
0/
00
#5072371241
0!
0"
0#
0$
0%
0&
0'
0(
0)
0*
0+
0,
0-
0.
0/
00
#5072371253
0!
0"
0#
0$
0%
0&
0'
1(
0)
0*
0+
0,
0-
0.
0/
00
#5072371266
0!
0"
0#
0$
0%
0&
0'
0(
0)
0*
0+
0,
0-
0.
0/
00
#5272370638
0!
0"
0#
0$
1%
0&
0'
0(
0)
0*
0+
0,
0-
0.
0/
00
#5272370650
0!
0"
0#
0$
0%
0&
0'
0(
0)
0*
0+
0,
0-
0.
0/
00
#5272370662
0!
0"
0#
0$
0%
1&
0'
0(
0)
0*
0+
0,
0-
0.
0/
00
#5272370674
0!
0"
0#
0$
0%
0&
0'
0(
0)
0*
0+
0,
0-
0.
0/
00
#5272370686
0!
0"
0#
0$
0%
0&
1'
0(
0)
0*
0+
0,
0-
0.
0/
00
#5272370699
0!
0"
0#
0$
0%
0&
0'
0(
0)
0*
0+
0,
0-
0.
0/
00
#5272370711
0!
0"
0#
0$
0%
0&
0'
1(
0)
0*
0+
0,
0-
0.
0/
00
#5272370724
0!
0"
0#
0$
0%
0&
0'
0(
0)
0*
0+
0,
0-
0.
0/
00
#5472370099
0!
0"
0#
0$
1%
0&
0'
0(
0)
0*
0+
0,
0-
0.
0/
00
#5472370111
0!
0"
0#
0$
0%
0&
0'
0(
0)
0*
0+
0,
0-
0.
0/
00
#5472370124
0!
0"
0#
0$
0%
1&
0'
0(
0)
0*
0+
0,
0-
0.
0/
00
#5472370135
0!
0"
0#
0$
0%
0&
0'
0(
0)
0*
0+
0,
0-
0.
0/
00
