mod_spi_slave/testbench_fifo.vcd
$date
	Wed May 23 23:03:25 2018
$end
$version
	Icarus Verilog
$end
$timescale
	1s
$end
$scope module testbench $end
$var wire 1 ! nempty_out $end
$var wire 1 " nempty_in $end
$var wire 4 # data_out [3:0] $end
$var reg 1 $ clk $end
$var reg 4 % data_in [3:0] $end
$var reg 1 & pop_out $end
$var reg 1 ' resetn $end
$var reg 1 ( shift_in $end
$scope module uut $end
$var wire 1 $ in_clk $end
$var wire 4 ) in_data [3:0] $end
$var wire 1 ( in_shift $end
$var wire 1 $ out_clk $end
$var wire 1 & out_pop $end
$var wire 4 * out_data [3:0] $end
$var wire 7 + next_opos [6:0] $end
$var wire 7 , next_next_ipos [6:0] $end
$var wire 7 - next_ipos [6:0] $end
$var reg 1 . in_full $end
$var reg 7 / in_ipos [6:0] $end
$var reg 7 0 in_ipos_gray [6:0] $end
$var reg 1 " in_nempty $end
$var reg 7 1 in_opos [6:0] $end
$var reg 7 2 in_opos_gray_0 [6:0] $end
$var reg 7 3 in_opos_gray_1 [6:0] $end
$var reg 7 4 in_opos_gray_2 [6:0] $end
$var reg 4 5 out_data_d [3:0] $end
$var reg 7 6 out_ipos [6:0] $end
$var reg 7 7 out_ipos_gray_0 [6:0] $end
$var reg 7 8 out_ipos_gray_1 [6:0] $end
$var reg 7 9 out_ipos_gray_2 [6:0] $end
$var reg 1 ! out_nempty $end
$var reg 7 : out_opos [6:0] $end
$var reg 7 ; out_opos_gray [6:0] $end
$scope function bin2gray $end
$var reg 7 < bin2gray [6:0] $end
$var reg 7 = in [6:0] $end
$upscope $end
$scope function gray2bin $end
$var reg 7 > gray2bin [6:0] $end
$var reg 7 ? in [6:0] $end
$upscope $end
$upscope $end
$upscope $end
$enddefinitions $end
#0
$dumpvars
b0 ?
b0 >
b0 =
b0 <
b0 ;
b0 :
b0 9
b0 8
b0 7
b0 6
bx 5
b0 4
b0 3
b0 2
b0 1
b0 0
b0 /
0.
b1 -
b10 ,
b1 +
b0 *
bx )
x(
0'
x&
bx %
1$
b0 #
0"
0!
$end
#5
0$
#10
1$
#15
0$
#20
1$
#25
0$
#30
1$
#35
0$
#40
1$
#45
0$
#50
1$
#55
0$
#60
1$
#65
0$
#70
1$
#75
0$
#80
1$
#85
0$
#90
1$
#95
0$
#100
1$
#105
0$
#110
1$
#115
0$
#120
1$
#125
0$
#130
1$
#135
0$
#140
1$
#145
0$
#150
1$
#155
0$
#160
1$
#165
0$
#170
1$
#175
0$
#180
1$
#185
0$
#190
1$
#195
0$
#200
1$
#205
0$
#210
1$
#215
0$
#220
1$
#225
0$
#230
1$
#235
0$
#240
1$
#245
0$
#250
1$
#255
0$
#260
1$
#265
0$
#270
1$
#275
0$
#280
1$
#285
0$
#290
1$
#295
0$
#300
1$
#305
0$
#310
1$
#315
0$
#320
1$
#325
0$
#330
1$
#335
0$
#340
1$
#345
0$
#350
1$
#355
0$
#360
1$
#365
0$
#370
1$
#375
0$
#380
1$
#385
0$
#390
1$
#395
0$
#400
1$
#405
0$
#410
1$
#415
0$
#420
1$
#425
0$
#430
1$
#435
0$
#440
1$
#445
0$
#450
1$
#455
0$
#460
1$
#465
0$
#470
1$
#475
0$
#480
1$
#485
0$
#490
1$
#495
0$
#500
1$
#505
0$
#510
1$
#515
0$
#520
1$
#525
0$
#530
1$
#535
0$
#540
1$
#545
0$
#550
1$
#555
0$
#560
1$
#565
0$
#570
1$
#575
0$
#580
1$
#585
0$
#590
1$
#595
0$
#600
1$
#605
0$
#610
1$
#615
0$
#620
1$
#625
0$
#630
1$
#635
0$
#640
1$
#645
0$
#650
1$
#655
0$
#660
1$
#665
0$
#670
1$
#675
0$
#680
1$
#685
0$
#690
1$
#695
0$
#700
1$
#705
0$
#710
1$
#715
0$
#720
1$
#725
0$
#730
1$
#735
0$
#740
1$
#745
0$
#750
1$
#755
0$
#760
1$
#765
0$
#770
1$
#775
0$
#780
1$
#785
0$
#790
1$
#795
0$
#800
1$
#805
0$
#810
1$
#815
0$
#820
1$
#825
0$
#830
1$
#835
0$
#840
1$
#845
0$
#850
1$
#855
0$
#860
1$
#865
0$
#870
1$
#875
0$
#880
1$
#885
0$
#890
1$
#895
0$
#900
1$
#905
0$
#910
1$
#915
0$
#920
1$
#925
0$
#930
1$
#935
0$
#940
1$
#945
0$
#950
1$
#955
0$
#960
1$
#965
0$
#970
1$
#975
0$
#980
1$
#985
0$
#990
1$
#995
0$
#1000
0&
0(
1'
1$
#1005
0$
#1010
1$
#1015
0$
#1020
1$
#1025
0$
#1030
1$
#1035
0$
#1040
1$
#1045
0$
#1050
1$
#1055
0$
#1060
1$
#1065
0$
#1070
1$
#1075
0$
#1080
1$
#1085
0$
#1090
1$
#1095
0$
#1100
1(
b1111 %
b1111 )
1$
#1105
0$
#1110
b11 ,
b10 -
b1 /
1"
0(
1$
#1115
0$
#1120
1(
b1100 %
b1100 )
b1111 5
b1 0
b1 <
b1 =
1$
#1125
0$
#1130
b100 ,
b11 -
b1 9
b10 /
0(
b0 <
b0 =
1$
#1135
0$
#1140
1(
b11 %
b11 )
b11 0
b1 8
b11 <
b10 =
1$
#1145
0$
#1150
b101 ,
b100 -
b1 7
b11 9
b11 /
0(
b0 <
b0 =
1$
#1155
0$
#1160
b10 0
b1 6
b11 8
b10 <
b11 =
b1 >
b1 ?
1$
#1165
0$
#1170
b1111 #
b1111 *
b11 7
b10 9
1!
b0 >
b0 ?
b0 <
b0 =
1$
#1175
0$
#1180
b10 6
b10 8
b10 <
b11 =
b10 >
b11 ?
1$
#1185
0$
#1190
b10 7
b0 ?
b0 <
b0 =
b0 >
1$
#1195
0$
#1200
b11 6
b10 <
b11 =
b11 >
b10 ?
1$
#1205
0$
#1210
b0 ?
b0 <
b0 =
b0 >
1$
#1215
0$
#1220
b10 <
b11 =
b11 >
b10 ?
1$
#1225
0$
#1230
b0 ?
b0 <
b0 =
b0 >
1$
#1235
0$
#1240
b10 <
b11 =
b11 >
b10 ?
1$
#1245
0$
#1250
b0 ?
b0 <
b0 =
b0 >
1$
#1255
0$
#1260
1&
b10 <
b11 =
b11 >
b10 ?
1$
#1265
0$
#1270
b10 +
b1100 #
b1100 *
b1 :
b1100 5
0&
b0 ?
b0 <
b0 =
b0 >
1$
#1275
0$
#1280
1(
b100 %
b100 )
b1 ;
b11 >
b10 ?
b10 <
b11 =
1$
#1285
0$
#1290
b110 ,
b101 -
b1 4
b100 /
0(
b0 ?
b1 <
b1 =
b0 >
1$
#1295
0$
#1300
1&
b110 0
b1 3
b110 <
b100 =
b11 >
b10 ?
1$
#1305
0$
#1310
b11 +
b11 #
b11 *
b1 2
b110 9
b10 :
b11 5
0&
b0 ?
b1 <
b1 =
b0 >
1$
#1315
0$
#1320
1&
b110 8
b11 ;
b1 1
b110 <
b100 =
b11 >
b10 ?
1$
#1325
0$
#1330
b100 +
b0 #
b0 *
b11 4
b110 7
b11 :
0!
b100 5
0&
b1 ?
b11 <
b10 =
b1 >
1$
#1335
0$
#1340
1&
b100 6
b10 ;
b11 3
b100 >
b110 ?
b110 <
b100 =
1$
#1345
0$
#1350
b100 #
b100 *
b11 2
b10 4
1!
0&
b1 ?
b10 <
b11 =
b1 >
1$
#1355
0$
#1360
b10 1
b10 3
b110 <
b100 =
b100 >
b110 ?
1$
#1365
0$
#1370
b10 2
b11 ?
b10 <
b11 =
b10 >
1$
#1375
0$
#1380
b11 1
b110 <
b100 =
b100 >
b110 ?
1$
#1385
0$
#1390
b10 ?
b10 <
b11 =
b11 >
1$
#1395
0$
#1400
b110 <
b100 =
b110 ?
b100 >
1$
#1405
0$
#1410
b10 ?
b10 <
b11 =
b11 >
1$
#1415
0$
#1420
b110 <
b100 =
b110 ?
b100 >
1$
#1425
0$
#1430
b10 ?
b10 <
b11 =
b11 >
1$
#1435
0$
#1440
b110 <
b100 =
b110 ?
b100 >
1$
#1445
0$
#1450
b10 ?
b10 <
b11 =
b11 >
1$
#1455
0$
#1460
1&
b110 <
b100 =
b110 ?
b100 >
1$
#1465
0$
#1470
b101 +
b0 #
b0 *
b100 :
0!
bx 5
0&
b10 ?
b10 <
b11 =
b11 >
1$
#1475
0$
#1480
b110 ;
b110 ?
b110 <
b100 =
b100 >
1$
#1485
0$
#1490
b110 4
b10 ?
b11 >
1$
#1495
0$
#1500
b110 3
b110 ?
b100 >
1$
#1505
0$
#1510
b110 2
b10 ?
b11 >
1$
#1515
0$
#1520
b100 1
b100 >
b110 ?
1$
#1525
0$
#1530
0"
b100 >
1$
#1535
0$
#1540
b100 >
1$
#1545
0$
#1550
b100 >
1$
#1555
0$
#1560
b100 >
1$
#1565
0$
#1570
b100 >
1$
#1575
0$
#1580
b100 >
1$
#1585
0$
#1590
b100 >
1$
#1595
0$
#1600
b100 >
1$
#1605
0$
#1610
b100 >
1$
#1615
0$
#1620
b100 >
1$
#1625
0$
#1630
b100 >
1$
#1635
0$
#1640
b100 >
1$
#1645
0$
#1650
b100 >
1$
#1655
0$
#1660
b100 >
1$
#1665
0$
#1670
b100 >
1$
#1675
0$
#1680
b100 >
1$
#1685
0$
#1690
b100 >
1$
#1695
0$
#1700
b100 >
1$
#1705
0$
#1710
b100 >
1$
#1715
0$
#1720
b100 >
1$
#1725
0$
#1730
b100 >
1$
#1735
0$
#1740
b100 >
1$
#1745
0$
#1750
b100 >
1$
#1755
0$
#1760
b100 >
1$
#1765
0$
#1770
b100 >
1$
#1775
0$
#1780
b100 >
1$
#1785
0$
#1790
b100 >
1$
#1795
0$
#1800
b100 >
1$
#1805
0$
#1810
b100 >
1$
#1815
0$
#1820
b100 >
1$
#1825
0$
#1830
b100 >
1$
#1835
0$
#1840
b100 >
1$
#1845
0$
#1850
b100 >
1$
#1855
0$
#1860
b100 >
1$
#1865
0$
#1870
b100 >
1$
#1875
0$
#1880
b100 >
1$
#1885
0$
#1890
b100 >
1$
#1895
0$
#1900
b100 >
1$
#1905
0$
#1910
b100 >
1$
#1915
0$
#1920
b100 >
1$
#1925
0$
#1930
b100 >
1$
#1935
0$
#1940
b100 >
1$
#1945
0$
#1950
b100 >
1$
#1955
0$
#1960
b100 >
1$
#1965
0$
#1970
b100 >
1$
#1975
0$
#1980
b100 >
1$
#1985
0$
#1990
b100 >
1$
#1995
0$
#2000
b100 >
1$
#2005
0$
#2010
b100 >
1$
#2015
0$
#2020
b100 >
1$
#2025
0$
#2030
b100 >
1$
#2035
0$
#2040
b100 >
1$
#2045
0$
#2050
b100 >
1$
#2055
0$
#2060
b100 >
1$
#2065
0$
#2070
b100 >
1$
#2075
0$
#2080
b100 >
1$
#2085
0$
#2090
b100 >
1$
#2095
0$
#2100
b100 >
1$
#2105
0$
#2110
b100 >
1$
#2115
0$
#2120
b100 >
1$
#2125
0$
#2130
b100 >
1$
#2135
0$
#2140
b100 >
1$
#2145
0$
#2150
b100 >
1$
#2155
0$
#2160
b100 >
1$
#2165
0$
#2170
b100 >
1$
#2175
0$
#2180
b100 >
1$
#2185
0$
#2190
b100 >
1$
#2195
0$
#2200
b100 >
1$
#2205
0$
#2210
b100 >
1$
#2215
0$
#2220
b100 >
1$
#2225
0$
#2230
b100 >
1$
#2235
0$
#2240
b100 >
1$
#2245
0$
#2250
b100 >
1$
#2255
0$
#2260
b100 >
1$
#2265
0$
#2270
b100 >
1$
#2275
0$
#2280
b100 >
1$
#2285
0$
#2290
b100 >
1$
#2295
0$
#2300
b100 >
1$
#2305
0$
#2310
b100 >
1$
#2315
0$
#2320
b100 >
1$
#2325
0$
#2330
b100 >
1$
#2335
0$
#2340
b100 >
1$
#2345
0$
#2350
b100 >
1$
#2355
0$
#2360
b100 >
1$
#2365
0$
#2370
b100 >
1$
#2375
0$
#2380
b100 >
1$
#2385
0$
#2390
b100 >
1$
#2395
0$
#2400
b100 >
1$
#2405
0$
#2410
b100 >
1$
#2415
0$
#2420
b100 >
1$
#2425
0$
#2430
b100 >
1$
#2435
0$
#2440
b100 >
1$
#2445
0$
#2450
b100 >
1$
#2455
0$
#2460
b100 >
1$
#2465
0$
#2470
b100 >
1$
#2475
0$
#2480
b100 >
1$
