mod_spi_slave/testbench.vcd
$date
	Mon Jun 18 14:45:30 2018
$end
$version
	Icarus Verilog
$end
$timescale
	1s
$end
$scope module testbench $end
$var wire 1 ! miso $end
$var wire 32 " ctrl_rdat [31:0] $end
$var wire 1 # ctrl_done $end
$var reg 1 $ clk $end
$var reg 1 % cs $end
$var reg 8 & ctrl_addr [7:0] $end
$var reg 1 ' ctrl_rd $end
$var reg 32 ( ctrl_wdat [31:0] $end
$var reg 1 ) ctrl_wr $end
$var reg 1 * mosi $end
$var reg 1 + resetn $end
$var reg 1 , sclk $end
$scope module uut $end
$var wire 1 $ clk $end
$var wire 1 - clk_in $end
$var wire 1 % cs $end
$var wire 1 . cs_active $end
$var wire 1 / cs_end $end
$var wire 1 0 cs_start $end
$var wire 8 1 ctrl_addr [7:0] $end
$var wire 1 ' ctrl_rd $end
$var wire 32 2 ctrl_wdat [31:0] $end
$var wire 1 ) ctrl_wr $end
$var wire 1 3 ctrlwr_start $end
$var wire 1 * mosi $end
$var wire 1 + resetn $end
$var wire 1 , sclk $end
$var wire 1 4 sclk_rising $end
$var wire 1 5 spi_sclk $end
$var wire 1 6 spi_mosi $end
$var wire 1 7 spi_cs $end
$var wire 1 8 sclk_falling $end
$var wire 1 9 mosi_sync $end
$var wire 1 ! miso $end
$var wire 1 : debug_pin_4 $end
$var wire 1 ; debug_pin_3 $end
$var wire 1 < debug_pin_2 $end
$var wire 1 = debug_pin_1 $end
$var wire 1 > clk_slow $end
$var reg 4 ? clk_div [3:0] $end
$var reg 3 @ cs_reg [2:0] $end
$var reg 1 # ctrl_done $end
$var reg 32 A ctrl_rdat [31:0] $end
$var reg 2 B ctrlwr_reg [1:0] $end
$var reg 1 C debug_1 $end
$var reg 1 D debug_2 $end
$var reg 1 E debug_3 $end
$var reg 1 F debug_4 $end
$var reg 2 G mosi_reg [1:0] $end
$var reg 3 H sclk_reg [2:0] $end
$var reg 32 I spi_data_in [31:0] $end
$var reg 32 J spi_data_out [31:0] $end
$var reg 1 K spi_miso $end
$var reg 6 L spi_state [5:0] $end
$scope module io_cs $end
$var wire 1 M CLOCK_ENABLE $end
$var wire 1 7 D_IN_0 $end
$var wire 1 N D_IN_1 $end
$var wire 1 O D_OUT_0 $end
$var wire 1 P D_OUT_1 $end
$var wire 1 Q INPUT_CLK $end
$var wire 1 R LATCH_INPUT_VALUE $end
$var wire 1 S OUTPUT_CLK $end
$var wire 1 T OUTPUT_ENABLE $end
$var wire 1 % PACKAGE_PIN $end
$var reg 1 U din_0 $end
$var reg 1 V din_1 $end
$var reg 1 W din_q_0 $end
$var reg 1 X din_q_1 $end
$var reg 1 Y dout $end
$var reg 1 Z dout_q_0 $end
$var reg 1 [ dout_q_1 $end
$var reg 1 \ outclk_delayed_1 $end
$var reg 1 ] outclk_delayed_2 $end
$var reg 1 ^ outena_q $end
$scope begin genblk1 $end
$upscope $end
$upscope $end
$scope module io_dclk $end
$var wire 1 _ CLOCK_ENABLE $end
$var wire 1 ` D_IN_0 $end
$var wire 1 a D_IN_1 $end
$var wire 1 C D_OUT_0 $end
$var wire 1 b D_OUT_1 $end
$var wire 1 c INPUT_CLK $end
$var wire 1 d LATCH_INPUT_VALUE $end
$var wire 1 e OUTPUT_CLK $end
$var wire 1 f OUTPUT_ENABLE $end
$var wire 1 = PACKAGE_PIN $end
$var reg 1 g din_0 $end
$var reg 1 h din_1 $end
$var reg 1 i din_q_0 $end
$var reg 1 j din_q_1 $end
$var reg 1 k dout $end
$var reg 1 l dout_q_0 $end
$var reg 1 m dout_q_1 $end
$var reg 1 n outclk_delayed_1 $end
$var reg 1 o outclk_delayed_2 $end
$var reg 1 p outena_q $end
$scope begin genblk1 $end
$upscope $end
$scope begin genblk3 $end
$upscope $end
$upscope $end
$scope module io_dclk2 $end
$var wire 1 q CLOCK_ENABLE $end
$var wire 1 r D_IN_0 $end
$var wire 1 s D_IN_1 $end
$var wire 1 D D_OUT_0 $end
$var wire 1 t D_OUT_1 $end
$var wire 1 u INPUT_CLK $end
$var wire 1 v LATCH_INPUT_VALUE $end
$var wire 1 w OUTPUT_CLK $end
$var wire 1 x OUTPUT_ENABLE $end
$var wire 1 < PACKAGE_PIN $end
$var reg 1 y din_0 $end
$var reg 1 z din_1 $end
$var reg 1 { din_q_0 $end
$var reg 1 | din_q_1 $end
$var reg 1 } dout $end
$var reg 1 ~ dout_q_0 $end
$var reg 1 !" dout_q_1 $end
$var reg 1 "" outclk_delayed_1 $end
$var reg 1 #" outclk_delayed_2 $end
$var reg 1 $" outena_q $end
$scope begin genblk1 $end
$upscope $end
$scope begin genblk3 $end
$upscope $end
$upscope $end
$scope module io_dclk3 $end
$var wire 1 %" CLOCK_ENABLE $end
$var wire 1 &" D_IN_0 $end
$var wire 1 '" D_IN_1 $end
$var wire 1 E D_OUT_0 $end
$var wire 1 (" D_OUT_1 $end
$var wire 1 )" INPUT_CLK $end
$var wire 1 *" LATCH_INPUT_VALUE $end
$var wire 1 +" OUTPUT_CLK $end
$var wire 1 ," OUTPUT_ENABLE $end
$var wire 1 ; PACKAGE_PIN $end
$var reg 1 -" din_0 $end
$var reg 1 ." din_1 $end
$var reg 1 /" din_q_0 $end
$var reg 1 0" din_q_1 $end
$var reg 1 1" dout $end
$var reg 1 2" dout_q_0 $end
$var reg 1 3" dout_q_1 $end
$var reg 1 4" outclk_delayed_1 $end
$var reg 1 5" outclk_delayed_2 $end
$var reg 1 6" outena_q $end
$scope begin genblk1 $end
$upscope $end
$scope begin genblk3 $end
$upscope $end
$upscope $end
$scope module io_dclk4 $end
$var wire 1 7" CLOCK_ENABLE $end
$var wire 1 8" D_IN_0 $end
$var wire 1 9" D_IN_1 $end
$var wire 1 F D_OUT_0 $end
$var wire 1 :" D_OUT_1 $end
$var wire 1 ;" INPUT_CLK $end
$var wire 1 <" LATCH_INPUT_VALUE $end
$var wire 1 =" OUTPUT_CLK $end
$var wire 1 >" OUTPUT_ENABLE $end
$var wire 1 : PACKAGE_PIN $end
$var reg 1 ?" din_0 $end
$var reg 1 @" din_1 $end
$var reg 1 A" din_q_0 $end
$var reg 1 B" din_q_1 $end
$var reg 1 C" dout $end
$var reg 1 D" dout_q_0 $end
$var reg 1 E" dout_q_1 $end
$var reg 1 F" outclk_delayed_1 $end
$var reg 1 G" outclk_delayed_2 $end
$var reg 1 H" outena_q $end
$scope begin genblk1 $end
$upscope $end
$scope begin genblk3 $end
$upscope $end
$upscope $end
$scope module io_miso $end
$var wire 1 I" CLOCK_ENABLE $end
$var wire 1 J" D_IN_0 $end
$var wire 1 K" D_IN_1 $end
$var wire 1 K D_OUT_0 $end
$var wire 1 L" D_OUT_1 $end
$var wire 1 M" INPUT_CLK $end
$var wire 1 N" LATCH_INPUT_VALUE $end
$var wire 1 O" OUTPUT_CLK $end
$var wire 1 P" OUTPUT_ENABLE $end
$var wire 1 ! PACKAGE_PIN $end
$var reg 1 Q" din_0 $end
$var reg 1 R" din_1 $end
$var reg 1 S" din_q_0 $end
$var reg 1 T" din_q_1 $end
$var reg 1 U" dout $end
$var reg 1 V" dout_q_0 $end
$var reg 1 W" dout_q_1 $end
$var reg 1 X" outclk_delayed_1 $end
$var reg 1 Y" outclk_delayed_2 $end
$var reg 1 Z" outena_q $end
$scope begin genblk1 $end
$upscope $end
$scope begin genblk3 $end
$upscope $end
$upscope $end
$scope module io_mosi $end
$var wire 1 [" CLOCK_ENABLE $end
$var wire 1 6 D_IN_0 $end
$var wire 1 \" D_IN_1 $end
$var wire 1 ]" D_OUT_0 $end
$var wire 1 ^" D_OUT_1 $end
$var wire 1 _" INPUT_CLK $end
$var wire 1 `" LATCH_INPUT_VALUE $end
$var wire 1 a" OUTPUT_CLK $end
$var wire 1 b" OUTPUT_ENABLE $end
$var wire 1 * PACKAGE_PIN $end
$var reg 1 c" din_0 $end
$var reg 1 d" din_1 $end
$var reg 1 e" din_q_0 $end
$var reg 1 f" din_q_1 $end
$var reg 1 g" dout $end
$var reg 1 h" dout_q_0 $end
$var reg 1 i" dout_q_1 $end
$var reg 1 j" outclk_delayed_1 $end
$var reg 1 k" outclk_delayed_2 $end
$var reg 1 l" outena_q $end
$scope begin genblk1 $end
$upscope $end
$upscope $end
$scope module io_sclk $end
$var wire 1 m" CLOCK_ENABLE $end
$var wire 1 5 D_IN_0 $end
$var wire 1 n" D_IN_1 $end
$var wire 1 o" D_OUT_0 $end
$var wire 1 p" D_OUT_1 $end
$var wire 1 q" INPUT_CLK $end
$var wire 1 r" LATCH_INPUT_VALUE $end
$var wire 1 s" OUTPUT_CLK $end
$var wire 1 t" OUTPUT_ENABLE $end
$var wire 1 , PACKAGE_PIN $end
$var reg 1 u" din_0 $end
$var reg 1 v" din_1 $end
$var reg 1 w" din_q_0 $end
$var reg 1 x" din_q_1 $end
$var reg 1 y" dout $end
$var reg 1 z" dout_q_0 $end
$var reg 1 {" dout_q_1 $end
$var reg 1 |" outclk_delayed_1 $end
$var reg 1 }" outclk_delayed_2 $end
$var reg 1 ~" outena_q $end
$scope begin genblk1 $end
$upscope $end
$upscope $end
$upscope $end
$scope task ctrl_read $end
$var reg 8 !# addr [7:0] $end
$upscope $end
$scope task ctrl_write $end
$var reg 8 "# addr [7:0] $end
$var reg 32 ## data [31:0] $end
$upscope $end
$scope task spi_clk $end
$upscope $end
$scope task xfer_test $end
$upscope $end
$upscope $end
$enddefinitions $end
#0
$dumpvars
bx ##
bx "#
bx !#
x~"
z}"
z|"
x{"
xz"
xy"
xx"
xw"
xv"
xu"
zt"
zs"
zr"
zq"
zp"
zo"
xn"
zm"
xl"
zk"
zj"
xi"
xh"
xg"
xf"
xe"
xd"
xc"
zb"
za"
z`"
z_"
z^"
z]"
x\"
z["
xZ"
zY"
zX"
xW"
xV"
0U"
xT"
xS"
xR"
xQ"
zP"
zO"
zN"
zM"
zL"
xK"
xJ"
zI"
xH"
zG"
zF"
xE"
xD"
0C"
xB"
xA"
x@"
x?"
z>"
z="
z<"
z;"
z:"
x9"
x8"
z7"
x6"
z5"
z4"
x3"
x2"
x1"
x0"
x/"
x."
x-"
z,"
z+"
z*"
z)"
z("
x'"
x&"
z%"
x$"
z#"
z""
x!"
x~
0}
x|
x{
xz
xy
zx
zw
zv
zu
zt
xs
xr
zq
xp
zo
zn
xm
xl
xk
xj
xi
xh
xg
zf
ze
zd
zc
zb
xa
x`
z_
x^
z]
z\
x[
xZ
xY
xX
xW
xV
xU
zT
zS
zR
zQ
zP
zO
xN
zM
b100001 L
0K
b0 J
b0 I
bx H
bx G
0F
xE
0D
xC
bx0 B
bx A
bx @
bx ?
x>
x=
0<
x;
0:
x9
x8
x7
x6
x5
x4
03
bx 2
bx 1
x0
x/
x.
z-
x,
0+
x*
0)
bx (
0'
bx &
x%
1$
0#
bx "
0!
$end
#5
0$
#10
b0 B
1$
#15
0$
#20
1$
#25
0$
#30
1$
#35
0$
#40
1$
#45
0$
#50
1$
#55
0$
#60
1$
#65
0$
#70
1$
#75
0$
#80
1$
#85
0$
#90
1$
#95
0$
#100
1$
#105
0$
#110
1$
#115
0$
#120
1$
#125
0$
#130
1$
#135
0$
#140
1$
#145
0$
#150
1$
#155
0$
#160
1$
#165
0$
#170
1$
#175
0$
#180
1$
#185
0$
#190
1$
#195
0$
#200
1$
#205
0$
#210
1$
#215
0$
#220
1$
#225
0$
#230
1$
#235
0$
#240
1$
#245
0$
#250
1$
#255
0$
#260
1$
#265
0$
#270
1$
#275
0$
#280
1$
#285
0$
#290
1$
#295
0$
#300
1$
#305
0$
#310
1$
#315
0$
#320
1$
#325
0$
#330
1$
#335
0$
#340
1$
#345
0$
#350
1$
#355
0$
#360
1$
#365
0$
#370
1$
#375
0$
#380
1$
#385
0$
#390
1$
#395
0$
#400
1$
#405
0$
#410
1$
#415
0$
#420
1$
#425
0$
#430
1$
#435
0$
#440
1$
#445
0$
#450
1$
#455
0$
#460
1$
#465
0$
#470
1$
#475
0$
#480
1$
#485
0$
#490
1$
#495
0$
#500
1$
#505
0$
#510
1$
#515
0$
#520
1$
#525
0$
#530
1$
#535
0$
#540
1$
#545
0$
#550
1$
#555
0$
#560
1$
#565
0$
#570
1$
#575
0$
#580
1$
#585
0$
#590
1$
#595
0$
#600
1$
#605
0$
#610
1$
#615
0$
#620
1$
#625
0$
#630
1$
#635
0$
#640
1$
#645
0$
#650
1$
#655
0$
#660
1$
#665
0$
#670
1$
#675
0$
#680
1$
#685
0$
#690
1$
#695
0$
#700
1$
#705
0$
#710
1$
#715
0$
#720
1$
#725
0$
#730
1$
#735
0$
#740
1$
#745
0$
#750
1$
#755
0$
#760
1$
#765
0$
#770
1$
#775
0$
#780
1$
#785
0$
#790
1$
#795
0$
#800
1$
#805
0$
#810
1$
#815
0$
#820
1$
#825
0$
#830
1$
#835
0$
#840
1$
#845
0$
#850
1$
#855
0$
#860
1$
#865
0$
#870
1$
#875
0$
#880
1$
#885
0$
#890
1$
#895
0$
#900
1$
#905
0$
#910
1$
#915
0$
#920
1$
#925
0$
#930
1$
#935
0$
#940
1$
#945
0$
#950
1$
#955
0$
#960
1$
#965
0$
#970
1$
#975
0$
#980
1$
#985
0$
#990
1$
#995
0$
#1000
05
0u"
17
1U
0,
1%
1+
1$
#1005
0$
#1010
bx1 @
bx0 H
1$
#1015
0$
#1020
0.
00
04
bx11 @
bx00 H
1$
#1025
0$
#1030
0/
08
b111 @
b0 H
1$
#1035
0$
#1040
0;
01"
0E
1$
#1045
0$
#1050
1$
#1055
0$
#1060
1$
#1065
0$
#1070
1$
#1075
0$
#1080
1$
#1085
0$
#1090
1$
#1095
0$
#1100
b1010101 (
b1010101 2
b100 &
b100 1
1)
b1010101 ##
b100 "#
1$
#1105
0$
#1110
13
b1 B
1$
#1115
0$
#1120
03
b1010101 J
b11 B
1$
#1125
0$
#1130
1$
#1135
0$
#1140
1$
#1145
0$
#1150
1$
#1155
0$
#1160
1$
#1165
0$
#1170
1$
#1175
0$
#1180
1$
#1185
0$
#1190
1$
#1195
0$
#1200
1$
#1205
0$
#1210
06
0c"
07
0U
0*
0%
1$
#1215
0$
#1220
bx0 G
b110 @
1$
#1225
0$
#1230
1.
10
09
b0 G
b100 @
1$
#1235
0$
#1240
00
b0 @
b0 L
1$
#1245
0$
#1250
1$
#1255
0$
#1260
1$
#1265
0$
#1270
1$
#1275
0$
#1280
1$
#1285
0$
#1290
1$
#1295
0$
#1300
1$
#1305
0$
#1310
15
1u"
1,
1$
#1315
0$
#1320
b1 H
1$
#1325
0$
#1330
14
b11 H
1$
#1335
0$
#1340
04
b1 L
b111 H
1$
#1345
0$
#1350
1$
#1355
0$
#1360
1$
#1365
0$
#1370
1$
#1375
0$
#1380
1$
#1385
0$
#1390
1$
#1395
0$
#1400
1$
#1405
0$
#1410
05
0u"
0,
1$
#1415
0$
#1420
b110 H
1$
#1425
0$
#1430
18
b100 H
1$
#1435
0$
#1440
08
b0 H
1$
#1445
0$
#1450
1$
#1455
0$
#1460
1$
#1465
0$
#1470
1$
#1475
0$
#1480
1$
#1485
0$
#1490
1$
#1495
0$
#1500
1$
#1505
0$
#1510
15
1u"
1,
1$
#1515
0$
#1520
b1 H
1$
#1525
0$
#1530
14
b11 H
1$
#1535
0$
#1540
04
b10 L
b111 H
1$
#1545
0$
#1550
1$
#1555
0$
#1560
1$
#1565
0$
#1570
1$
#1575
0$
#1580
1$
#1585
0$
#1590
1$
#1595
0$
#1600
1$
#1605
0$
#1610
05
0u"
0,
1$
#1615
0$
#1620
b110 H
1$
#1625
0$
#1630
18
b100 H
1$
#1635
0$
#1640
08
b0 H
1$
#1645
0$
#1650
1$
#1655
0$
#1660
1$
#1665
0$
#1670
1$
#1675
0$
#1680
1$
#1685
0$
#1690
1$
#1695
0$
#1700
1$
#1705
0$
#1710
15
1u"
1,
1$
#1715
0$
#1720
b1 H
1$
#1725
0$
#1730
14
b11 H
1$
#1735
0$
#1740
04
b11 L
b111 H
1$
#1745
0$
#1750
1$
#1755
0$
#1760
1$
#1765
0$
#1770
1$
#1775
0$
#1780
1$
#1785
0$
#1790
1$
#1795
0$
#1800
1$
#1805
0$
#1810
05
0u"
0,
1$
#1815
0$
#1820
b110 H
1$
#1825
0$
#1830
18
b100 H
1$
#1835
0$
#1840
08
b0 H
1$
#1845
0$
#1850
1$
#1855
0$
#1860
1$
#1865
0$
#1870
1$
#1875
0$
#1880
1$
#1885
0$
#1890
1$
#1895
0$
#1900
1$
#1905
0$
#1910
15
1u"
1,
1$
#1915
0$
#1920
b1 H
1$
#1925
0$
#1930
14
b11 H
1$
#1935
0$
#1940
04
b100 L
b111 H
1$
#1945
0$
#1950
1$
#1955
0$
#1960
1$
#1965
0$
#1970
1$
#1975
0$
#1980
1$
#1985
0$
#1990
1$
#1995
0$
#2000
1$
#2005
0$
#2010
05
0u"
0,
1$
#2015
0$
#2020
b110 H
1$
#2025
0$
#2030
18
b100 H
1$
#2035
0$
#2040
08
b0 H
1$
#2045
0$
#2050
1$
#2055
0$
#2060
1$
#2065
0$
#2070
1$
#2075
0$
#2080
1$
#2085
0$
#2090
1$
#2095
0$
#2100
1$
#2105
0$
#2110
15
1u"
1,
1$
#2115
0$
#2120
b1 H
1$
#2125
0$
#2130
14
b11 H
1$
#2135
0$
#2140
04
b101 L
b111 H
1$
#2145
0$
#2150
1$
#2155
0$
#2160
1$
#2165
0$
#2170
1$
#2175
0$
#2180
1$
#2185
0$
#2190
1$
#2195
0$
#2200
1$
#2205
0$
#2210
05
0u"
0,
1$
#2215
0$
#2220
b110 H
1$
#2225
0$
#2230
18
b100 H
1$
#2235
0$
#2240
08
b0 H
1$
#2245
0$
#2250
1$
#2255
0$
#2260
1$
#2265
0$
#2270
1$
#2275
0$
#2280
1$
#2285
0$
#2290
1$
#2295
0$
#2300
1$
#2305
0$
#2310
15
1u"
1,
1$
#2315
0$
#2320
b1 H
1$
#2325
0$
#2330
14
b11 H
1$
#2335
0$
#2340
04
b110 L
b111 H
1$
#2345
0$
#2350
1$
#2355
0$
#2360
1$
#2365
0$
#2370
1$
#2375
0$
#2380
1$
#2385
0$
#2390
1$
#2395
0$
#2400
1$
#2405
0$
#2410
05
0u"
0,
1$
#2415
0$
#2420
b110 H
1$
#2425
0$
#2430
18
b100 H
1$
#2435
0$
#2440
08
b0 H
1$
#2445
0$
#2450
1$
#2455
0$
#2460
1$
#2465
0$
#2470
1$
#2475
0$
#2480
1$
#2485
0$
#2490
1$
#2495
0$
#2500
1$
#2505
0$
#2510
15
1u"
1,
1$
#2515
0$
#2520
b1 H
1$
#2525
0$
#2530
14
b11 H
1$
#2535
0$
#2540
04
b111 L
b111 H
1$
#2545
0$
#2550
1$
#2555
0$
#2560
1$
#2565
0$
#2570
1$
#2575
0$
#2580
1$
#2585
0$
#2590
1$
#2595
0$
#2600
1$
#2605
0$
#2610
05
0u"
0,
1$
#2615
0$
#2620
b110 H
1$
#2625
0$
#2630
18
b100 H
1$
#2635
0$
#2640
08
b0 H
1$
#2645
0$
#2650
1$
#2655
0$
#2660
1$
#2665
0$
#2670
1$
#2675
0$
#2680
1$
#2685
0$
#2690
1$
#2695
0$
#2700
1$
#2705
0$
#2710
15
1u"
1,
1$
#2715
0$
#2720
b1 H
1$
#2725
0$
#2730
14
b11 H
1$
#2735
0$
#2740
04
b1000 L
b111 H
1$
#2745
0$
#2750
1$
#2755
0$
#2760
1$
#2765
0$
#2770
1$
#2775
0$
#2780
1$
#2785
0$
#2790
1$
#2795
0$
#2800
1$
#2805
0$
#2810
05
0u"
16
1c"
0,
1*
1$
#2815
0$
#2820
b1 G
b110 H
1$
#2825
0$
#2830
19
18
b11 G
b100 H
1$
#2835
0$
#2840
08
b0 H
1$
#2845
0$
#2850
1$
#2855
0$
#2860
1$
#2865
0$
#2870
1$
#2875
0$
#2880
1$
#2885
0$
#2890
1$
#2895
0$
#2900
1$
#2905
0$
#2910
15
1u"
1,
1$
#2915
0$
#2920
b1 H
1$
#2925
0$
#2930
14
b11 H
1$
#2935
0$
#2940
04
b1001 L
b111 H
b100000000000000000000000 I
1$
#2945
0$
#2950
1$
#2955
0$
#2960
1$
#2965
0$
#2970
1$
#2975
0$
#2980
1$
#2985
0$
#2990
1$
#2995
0$
#3000
1$
#3005
0$
#3010
05
0u"
0,
1$
#3015
0$
#3020
b110 H
1$
#3025
0$
#3030
18
b100 H
1$
#3035
0$
#3040
08
b0 H
1$
#3045
0$
#3050
1$
#3055
0$
#3060
1$
#3065
0$
#3070
1$
#3075
0$
#3080
1$
#3085
0$
#3090
1$
#3095
0$
#3100
1$
#3105
0$
#3110
15
1u"
1,
1$
#3115
0$
#3120
b1 H
1$
#3125
0$
#3130
14
b11 H
1$
#3135
0$
#3140
04
b1010 L
b111 H
b110000000000000000000000 I
1$
#3145
0$
#3150
1$
#3155
0$
#3160
1$
#3165
0$
#3170
1$
#3175
0$
#3180
1$
#3185
0$
#3190
1$
#3195
0$
#3200
1$
#3205
0$
#3210
05
0u"
0,
1$
#3215
0$
#3220
b110 H
1$
#3225
0$
#3230
18
b100 H
1$
#3235
0$
#3240
08
b0 H
1$
#3245
0$
#3250
1$
#3255
0$
#3260
1$
#3265
0$
#3270
1$
#3275
0$
#3280
1$
#3285
0$
#3290
1$
#3295
0$
#3300
1$
#3305
0$
#3310
15
1u"
1,
1$
#3315
0$
#3320
b1 H
1$
#3325
0$
#3330
14
b11 H
1$
#3335
0$
#3340
04
b1011 L
b111 H
b111000000000000000000000 I
1$
#3345
0$
#3350
1$
#3355
0$
#3360
1$
#3365
0$
#3370
1$
#3375
0$
#3380
1$
#3385
0$
#3390
1$
#3395
0$
#3400
1$
#3405
0$
#3410
05
0u"
0,
1$
#3415
0$
#3420
b110 H
1$
#3425
0$
#3430
18
b100 H
1$
#3435
0$
#3440
08
b0 H
1$
#3445
0$
#3450
1$
#3455
0$
#3460
1$
#3465
0$
#3470
1$
#3475
0$
#3480
1$
#3485
0$
#3490
1$
#3495
0$
#3500
1$
#3505
0$
#3510
15
1u"
1,
1$
#3515
0$
#3520
b1 H
1$
#3525
0$
#3530
14
b11 H
1$
#3535
0$
#3540
04
b1100 L
b111 H
b111100000000000000000000 I
1$
#3545
0$
#3550
1$
#3555
0$
#3560
1$
#3565
0$
#3570
1$
#3575
0$
#3580
1$
#3585
0$
#3590
1$
#3595
0$
#3600
1$
#3605
0$
#3610
05
0u"
06
0c"
0,
0*
1$
#3615
0$
#3620
b10 G
b110 H
1$
#3625
0$
#3630
09
18
b0 G
b100 H
1$
#3635
0$
#3640
08
b0 H
1$
#3645
0$
#3650
1$
#3655
0$
#3660
1$
#3665
0$
#3670
1$
#3675
0$
#3680
1$
#3685
0$
#3690
1$
#3695
0$
#3700
1$
#3705
0$
#3710
15
1u"
1,
1$
#3715
0$
#3720
b1 H
1$
#3725
0$
#3730
14
b11 H
1$
#3735
0$
#3740
04
b1101 L
b111 H
1$
#3745
0$
#3750
1$
#3755
0$
#3760
1$
#3765
0$
#3770
1$
#3775
0$
#3780
1$
#3785
0$
#3790
1$
#3795
0$
#3800
1$
#3805
0$
#3810
05
0u"
0,
1$
#3815
0$
#3820
b110 H
1$
#3825
0$
#3830
18
b100 H
1$
#3835
0$
#3840
08
b0 H
1$
#3845
0$
#3850
1$
#3855
0$
#3860
1$
#3865
0$
#3870
1$
#3875
0$
#3880
1$
#3885
0$
#3890
1$
#3895
0$
#3900
1$
#3905
0$
#3910
15
1u"
1,
1$
#3915
0$
#3920
b1 H
1$
#3925
0$
#3930
14
b11 H
1$
#3935
0$
#3940
04
b1110 L
b111 H
1$
#3945
0$
#3950
1$
#3955
0$
#3960
1$
#3965
0$
#3970
1$
#3975
0$
#3980
1$
#3985
0$
#3990
1$
#3995
0$
#4000
1$
#4005
0$
#4010
05
0u"
0,
1$
#4015
0$
#4020
b110 H
1$
#4025
0$
#4030
18
b100 H
1$
#4035
0$
#4040
08
b0 H
1$
#4045
0$
#4050
1$
#4055
0$
#4060
1$
#4065
0$
#4070
1$
#4075
0$
#4080
1$
#4085
0$
#4090
1$
#4095
0$
#4100
1$
#4105
0$
#4110
15
1u"
1,
1$
#4115
0$
#4120
b1 H
1$
#4125
0$
#4130
14
b11 H
1$
#4135
0$
#4140
04
b1111 L
b111 H
1$
#4145
0$
#4150
1$
#4155
0$
#4160
1$
#4165
0$
#4170
1$
#4175
0$
#4180
1$
#4185
0$
#4190
1$
#4195
0$
#4200
1$
#4205
0$
#4210
05
0u"
0,
1$
#4215
0$
#4220
b110 H
1$
#4225
0$
#4230
18
b100 H
1$
#4235
0$
#4240
08
b0 H
1$
#4245
0$
#4250
1$
#4255
0$
#4260
1$
#4265
0$
#4270
1$
#4275
0$
#4280
1$
#4285
0$
#4290
1$
#4295
0$
#4300
1$
#4305
0$
#4310
15
1u"
1,
1$
#4315
0$
#4320
b1 H
1$
#4325
0$
#4330
14
b11 H
1$
#4335
0$
#4340
04
b10000 L
b111 H
1$
#4345
0$
#4350
1$
#4355
0$
#4360
1$
#4365
0$
#4370
1$
#4375
0$
#4380
1$
#4385
0$
#4390
1$
#4395
0$
#4400
1$
#4405
0$
#4410
05
0u"
16
1c"
0,
1*
1$
#4415
0$
#4420
b1 G
b110 H
1$
#4425
0$
#4430
19
18
b11 G
b100 H
1$
#4435
0$
#4440
08
b0 H
1$
#4445
0$
#4450
1$
#4455
0$
#4460
1$
#4465
0$
#4470
1$
#4475
0$
#4480
1$
#4485
0$
#4490
1$
#4495
0$
#4500
1$
#4505
0$
#4510
15
1u"
1,
1$
#4515
0$
#4520
b1 H
1$
#4525
0$
#4530
14
b11 H
1$
#4535
0$
#4540
04
b10001 L
b111 H
b111100001000000000000000 I
1$
#4545
0$
#4550
1$
#4555
0$
#4560
1$
#4565
0$
#4570
1$
#4575
0$
#4580
1$
#4585
0$
#4590
1$
#4595
0$
#4600
1$
#4605
0$
#4610
05
0u"
06
0c"
0,
0*
1$
#4615
0$
#4620
b10 G
b110 H
1$
#4625
0$
#4630
09
18
b0 G
b100 H
1$
#4635
0$
#4640
08
b0 H
1$
#4645
0$
#4650
1$
#4655
0$
#4660
1$
#4665
0$
#4670
1$
#4675
0$
#4680
1$
#4685
0$
#4690
1$
#4695
0$
#4700
1$
#4705
0$
#4710
15
1u"
1,
1$
#4715
0$
#4720
b1 H
1$
#4725
0$
#4730
14
b11 H
1$
#4735
0$
#4740
04
b10010 L
b111 H
1$
#4745
0$
#4750
1$
#4755
0$
#4760
1$
#4765
0$
#4770
1$
#4775
0$
#4780
1$
#4785
0$
#4790
1$
#4795
0$
#4800
1$
#4805
0$
#4810
05
0u"
16
1c"
0,
1*
1$
#4815
0$
#4820
b1 G
b110 H
1$
#4825
0$
#4830
19
18
b11 G
b100 H
1$
#4835
0$
#4840
08
b0 H
1$
#4845
0$
#4850
1$
#4855
0$
#4860
1$
#4865
0$
#4870
1$
#4875
0$
#4880
1$
#4885
0$
#4890
1$
#4895
0$
#4900
1$
#4905
0$
#4910
15
1u"
1,
1$
#4915
0$
#4920
b1 H
1$
#4925
0$
#4930
14
b11 H
1$
#4935
0$
#4940
04
b10011 L
b111 H
b111100001010000000000000 I
1$
#4945
0$
#4950
1$
#4955
0$
#4960
1$
#4965
0$
#4970
1$
#4975
0$
#4980
1$
#4985
0$
#4990
1$
#4995
0$
#5000
1$
#5005
0$
#5010
05
0u"
06
0c"
0,
0*
1$
#5015
0$
#5020
b10 G
b110 H
1$
#5025
0$
#5030
09
18
b0 G
b100 H
1$
#5035
0$
#5040
08
b0 H
1$
#5045
0$
#5050
1$
#5055
0$
#5060
1$
#5065
0$
#5070
1$
#5075
0$
#5080
1$
#5085
0$
#5090
1$
#5095
0$
#5100
1$
#5105
0$
#5110
15
1u"
1,
1$
#5115
0$
#5120
b1 H
1$
#5125
0$
#5130
14
b11 H
1$
#5135
0$
#5140
04
b10100 L
b111 H
1$
#5145
0$
#5150
1$
#5155
0$
#5160
1$
#5165
0$
#5170
1$
#5175
0$
#5180
1$
#5185
0$
#5190
1$
#5195
0$
#5200
1$
#5205
0$
#5210
05
0u"
0,
1$
#5215
0$
#5220
b110 H
1$
#5225
0$
#5230
18
b100 H
1$
#5235
0$
#5240
08
b0 H
1$
#5245
0$
#5250
1$
#5255
0$
#5260
1$
#5265
0$
#5270
1$
#5275
0$
#5280
1$
#5285
0$
#5290
1$
#5295
0$
#5300
1$
#5305
0$
#5310
15
1u"
1,
1$
#5315
0$
#5320
b1 H
1$
#5325
0$
#5330
14
b11 H
1$
#5335
0$
#5340
04
b10101 L
b111 H
1$
#5345
0$
#5350
1$
#5355
0$
#5360
1$
#5365
0$
#5370
1$
#5375
0$
#5380
1$
#5385
0$
#5390
1$
#5395
0$
#5400
1$
#5405
0$
#5410
05
0u"
16
1c"
0,
1*
1$
#5415
0$
#5420
b1 G
b110 H
1$
#5425
0$
#5430
19
18
b11 G
b100 H
1$
#5435
0$
#5440
08
b0 H
1$
#5445
0$
#5450
1$
#5455
0$
#5460
1$
#5465
0$
#5470
1$
#5475
0$
#5480
1$
#5485
0$
#5490
1$
#5495
0$
#5500
1$
#5505
0$
#5510
15
1u"
1,
1$
#5515
0$
#5520
b1 H
1$
#5525
0$
#5530
14
b11 H
1$
#5535
0$
#5540
04
b10110 L
b111 H
b111100001010010000000000 I
1$
#5545
0$
#5550
1$
#5555
0$
#5560
1$
#5565
0$
#5570
1$
#5575
0$
#5580
1$
#5585
0$
#5590
1$
#5595
0$
#5600
1$
#5605
0$
#5610
05
0u"
06
0c"
0,
0*
1$
#5615
0$
#5620
b10 G
b110 H
1$
#5625
0$
#5630
09
18
b0 G
b100 H
1$
#5635
0$
#5640
08
b0 H
1$
#5645
0$
#5650
1$
#5655
0$
#5660
1$
#5665
0$
#5670
1$
